package com.rules;

import java.lang.*;
import com.am.checkin.web.v2.model.UpgradeKnowledge;

dialect  "mvel"
rule "UPGRADE-ELIGIBILITY Calculate delta platino upgrade elegibility"
    when
        $input: UpgradeKnowledge(fact.tierLevel == "DLP" && ["Y","B","M","W","K","H","L","Q","T","U","E","N","R","S","X"] contains fact.classOfService && ["LHR","AMS","CDG","MAD","BCN","NRT","PVG","ICN","LIM","EZE","SCL","GRU"] not contains fact.origin && ["LHR","AMS","CDG","MAD","BCN","NRT","PVG","ICN","LIM","EZE","SCL","GRU"] not contains fact.destination);
    then
        $input.result.applyForUpgrade = Boolean.TRUE;
end
